D:\projects\car-sales\cars-for-sales\cars-for-sales\wwwroot\out-tsc\app\vehicles\vehicle.js
D:\projects\car-sales\cars-for-sales\cars-for-sales\wwwroot\out-tsc\app\vehicles\vehicle.js.map
D:\projects\car-sales\cars-for-sales\cars-for-sales\wwwroot\out-tsc\app\vehicles\car\car.js
D:\projects\car-sales\cars-for-sales\cars-for-sales\wwwroot\out-tsc\app\vehicles\car\car.js.map
D:\projects\car-sales\cars-for-sales\cars-for-sales\wwwroot\out-tsc\app\vehicles\api.service.js
D:\projects\car-sales\cars-for-sales\cars-for-sales\wwwroot\out-tsc\app\vehicles\api.service.js.map
D:\projects\car-sales\cars-for-sales\cars-for-sales\wwwroot\out-tsc\app\app.component.js
D:\projects\car-sales\cars-for-sales\cars-for-sales\wwwroot\out-tsc\app\app.component.js.map
D:\projects\car-sales\cars-for-sales\cars-for-sales\wwwroot\out-tsc\app\app.module.js
D:\projects\car-sales\cars-for-sales\cars-for-sales\wwwroot\out-tsc\app\app.module.js.map
D:\projects\car-sales\cars-for-sales\cars-for-sales\wwwroot\out-tsc\environments\environment.js
D:\projects\car-sales\cars-for-sales\cars-for-sales\wwwroot\out-tsc\environments\environment.js.map
D:\projects\car-sales\cars-for-sales\cars-for-sales\wwwroot\out-tsc\main.js
D:\projects\car-sales\cars-for-sales\cars-for-sales\wwwroot\out-tsc\main.js.map
D:\projects\car-sales\cars-for-sales\cars-for-sales\wwwroot\out-tsc\polyfills.js
D:\projects\car-sales\cars-for-sales\cars-for-sales\wwwroot\out-tsc\polyfills.js.map
D:\projects\car-sales\cars-for-sales\cars-for-sales\wwwroot\out-tsc\test.js
D:\projects\car-sales\cars-for-sales\cars-for-sales\wwwroot\out-tsc\test.js.map
D:\projects\car-sales\cars-for-sales\cars-for-sales\wwwroot\out-tsc\app\app.component.spec.js
D:\projects\car-sales\cars-for-sales\cars-for-sales\wwwroot\out-tsc\app\app.component.spec.js.map
D:\projects\car-sales\cars-for-sales\cars-for-sales\wwwroot\out-tsc\environments\environment.prod.js
D:\projects\car-sales\cars-for-sales\cars-for-sales\wwwroot\out-tsc\environments\environment.prod.js.map
D:\projects\car-sales\cars-for-sales\cars-for-sales\wwwroot\out-tsc\app\vehicles\api.service.spec.js
D:\projects\car-sales\cars-for-sales\cars-for-sales\wwwroot\out-tsc\app\vehicles\api.service.spec.js.map
